2.295479212888256626e+01,5.914422940311357957e-01,9.754329241739998935e+00,3.604633792563101125e+00
2.403202445981119695e+01,5.338245737269224911e-01,9.733582779032854404e+00,3.571571655081256846e+00
2.500046129068694967e+01,4.401295763880230805e-01,9.847111649346997453e+00,3.612011687796158999e+00
2.596973358580896374e+01,5.247567194673528057e-01,9.876532122869470243e+00,3.658247775447940775e+00
2.706455302501454696e+01,5.161845793857436915e-01,9.899367259879435110e+00,3.520766300432148999e+00
2.793980401829668381e+01,5.010466395784114457e-01,9.780698277871664459e+00,3.466405369520674462e+00
2.895414812023798490e+01,2.198869498528701061e-01,9.625806154940965698e+00,3.530125028628079864e+00
2.995124945853511633e+01,2.790705782594501416e-01,9.566822560357877592e+00,3.390523649474402657e+00
3.096458745973555082e+01,1.739016044008459549e-01,9.680080640542572112e+00,3.389162642398378278e+00
3.190596652530113175e+01,3.957207750425500992e-01,9.689727565346716531e+00,3.503994316600878456e+00
3.304242919446085835e+01,4.227132315791263806e-01,9.655680495156808263e+00,3.505548162995234307e+00
3.398068409462040762e+01,4.205540457595896009e-01,9.575871023997123643e+00,3.487748457468061947e+00
3.500083968349362351e+01,5.399180169957212838e-01,9.628626655704779935e+00,3.654051174019612880e+00
3.608233788478246851e+01,5.193031215266398215e-01,9.693594557267763534e+00,3.550666444635729224e+00
3.699477357403030453e+01,5.408102440430075930e-01,9.755501205017313993e+00,3.507057762957253466e+00
3.797479207668989432e+01,4.252228986709540859e-01,9.594449229739719698e+00,3.549384914585338890e+00
3.898896783938221944e+01,4.469752597815549455e-01,9.457014952318562706e+00,3.406239379058526584e+00
3.999329249277776910e+01,4.327735682158488362e-01,9.538311795539740956e+00,3.331420046856250927e+00
4.100148408321164339e+01,2.494142861895879693e-01,9.601590238911477115e+00,3.272601938340112593e+00
4.206523428159959366e+01,1.222352936153275615e-01,9.547592910802947586e+00,3.211440775807793191e+00
4.306294031648173615e+01,-1.060286516171739524e-01,9.553608234160673618e+00,3.119642381547145682e+00
4.402608208484466701e+01,-2.193622714704705212e-01,9.645956146056663627e+00,3.200937138638828561e+00
4.503579519962120514e+01,-1.505818865393829253e-02,9.632058512046905108e+00,3.221541971197011911e+00
4.603907139482785027e+01,7.154965761159069737e-02,9.694907631632839085e+00,3.131701534451609259e+00
4.714574998220812319e+01,3.550244849006548020e-02,9.753116188503502926e+00,3.090040996487157354e+00
4.797454585688952733e+01,-1.682859233631106843e-01,9.648997632755250464e+00,3.107080216590103916e+00
4.904183286889109183e+01,-5.071590596788881911e-01,9.743943305472145155e+00,3.061907809200985042e+00
4.996458796378407641e+01,-7.007499687350479123e-01,9.845112336123282404e+00,2.954419861863157859e+00
5.104200247570031479e+01,-8.844029780764086635e-01,1.000400410143472740e+01,2.901225746564359831e+00
5.201375053202988852e+01,-8.881576547801361965e-01,1.016193596935915089e+01,3.022090257225865884e+00
5.302346480979218768e+01,-7.301222169847590981e-01,1.018668792035396997e+01,3.040327011176750638e+00
5.399232577453940252e+01,-4.423937115346851523e-01,1.010261847018081660e+01,2.911913592102570725e+00
5.503520027262786840e+01,-5.359604573150038992e-02,1.015449242674443830e+01,2.982419896190659614e+00
5.592807208756227055e+01,2.988482369493026397e-02,1.010701006120689804e+01,2.966842597270941351e+00
5.696986518151346246e+01,-4.762182339134762160e-03,1.000379793313709875e+01,3.198888567706033914e+00
5.798792968937022607e+01,2.661241054202083053e-02,9.833432623728127098e+00,3.223362302428864901e+00
5.903819605251102587e+01,1.319161866820931228e-01,9.957206516048678679e+00,3.149100547960519414e+00
5.995653916205257161e+01,1.426636621968733754e-01,9.968103735655137854e+00,3.047459558411147018e+00
6.101506207371512147e+01,-1.513658593607886405e-01,9.819113115782629464e+00,3.052244067408502737e+00
6.194499926921559307e+01,-2.705641229153379346e-01,9.879990397753450893e+00,3.012214381490761372e+00
6.305309399651904556e+01,-4.113084407464720482e-01,9.865923970628973194e+00,2.893708487703600785e+00
6.402877992336163970e+01,-6.374662117393725680e-01,9.733014641480748352e+00,2.887220293462559706e+00
6.498400789576639625e+01,-8.673553459728831072e-01,9.854440304827429387e+00,2.749416031916294134e+00
6.599534480642738288e+01,-1.001506098604115547e+00,9.843613612909281940e+00,2.754087229316486862e+00
6.700018865250501676e+01,-8.903577812003669045e-01,9.904211182397457236e+00,2.746136203564979894e+00
6.797833078887593672e+01,-8.008017407611526250e-01,9.954047913267874748e+00,2.711423015107586210e+00
6.900035761594075723e+01,-8.141478116946612165e-01,9.966363888505906488e+00,2.812473340606885586e+00
7.004669003143121131e+01,-8.590357350425741334e-01,1.000368628151523964e+01,2.858787258610004933e+00
7.107036744405091611e+01,-8.243086125052265789e-01,1.004305195977761400e+01,2.940916655775174249e+00
7.200318101268845794e+01,-8.394294625937575027e-01,1.018770567726678422e+01,2.905243213998992324e+00
7.303519079212357212e+01,-8.836481327831359200e-01,1.020337073450409626e+01,2.980213204590248299e+00
7.401667307625545789e+01,-8.609162721300989141e-01,1.023608196044767027e+01,2.828515517462835138e+00
7.508886538782211062e+01,-7.619551949728252671e-01,1.045690395271228468e+01,2.828644166297271223e+00
7.605834623220323465e+01,-9.076591693440106967e-01,1.039247199871732086e+01,2.835991612587519750e+00
7.700837683900391539e+01,-8.830194338275222377e-01,1.031973818177677416e+01,2.582965467709398499e+00
7.807952795872732565e+01,-1.188653689934563884e+00,1.034639032389465818e+01,2.673599011688178262e+00
7.900813659984525827e+01,-1.405188845964910005e+00,1.025581761914138923e+01,2.547950477149144355e+00
7.997898014004847767e+01,-1.612983405622443911e+00,1.018446847307208891e+01,2.546074131883815816e+00
8.102599015256666348e+01,-1.631631537989852498e+00,1.008908338809166949e+01,2.773582466371383060e+00
8.213156275682398189e+01,-1.477147863661257388e+00,1.002351835079504383e+01,2.861272174303153282e+00
8.298559864358195171e+01,-1.257810373722757058e+00,1.007206026038882385e+01,3.000249795456146451e+00
8.407197809899766128e+01,-1.326892999633290993e+00,9.884550332320616306e+00,3.058971744820123906e+00
8.498753462070352782e+01,-1.430992813994817370e+00,9.689972820220653205e+00,3.255890312247856411e+00
8.614700725792665992e+01,-1.517471797815655110e+00,9.525381926943557787e+00,3.256125817366492203e+00
8.706333222894312485e+01,-1.626574586938699163e+00,9.403977701063380934e+00,3.248359879903254033e+00
8.794327877007643224e+01,-1.733825794328756942e+00,9.333679379506081730e+00,3.383790568600993698e+00
8.897839239231829822e+01,-1.866395257075929459e+00,9.156579419759102834e+00,3.516884110269533181e+00
8.999886184589610139e+01,-1.849661637631349942e+00,9.117792381767010568e+00,3.508758465389325565e+00
9.108721332808455884e+01,-1.974800118752048528e+00,9.037462965123173930e+00,3.488567282949161630e+00
9.195027474203281770e+01,-2.076372532677403626e+00,8.783005138158490155e+00,3.384452254031213858e+00
9.304555411811290355e+01,-2.284915084412891151e+00,8.380054753231702236e+00,3.615899236693058239e+00
9.403061052123403840e+01,-2.249076934187300925e+00,8.110833610921913461e+00,3.613165623218357325e+00
9.492726642023728800e+01,-2.194415016548637798e+00,8.082608240518709408e+00,3.601332866182542780e+00
9.598218597335741720e+01,-2.154579230304197512e+00,7.937780188666114789e+00,3.237717580727220490e+00
9.705494496560390871e+01,-2.252158091718141186e+00,7.506970682456737265e+00,3.355098453772216605e+00
9.800131575247304738e+01,-2.423865983843731087e+00,6.845706385575297759e+00,3.532486660561782177e+00
9.899617405756565347e+01,-2.511133587435021575e+00,6.199132364547208951e+00,3.489367164055329429e+00
9.999592660491977369e+01,-2.385312609374661719e+00,5.955219101404265025e+00,3.354737211447988976e+00
1.009375623928624179e+02,-2.297605031055979463e+00,5.446661088283010876e+00,3.454226577443409330e+00
1.021198344258631465e+02,-2.131000285045109521e+00,4.910345780187102882e+00,3.201781976380549732e+00
1.030486043557518627e+02,-1.927380967173179638e+00,4.767628050087784786e+00,3.092462743256080948e+00
1.038638893354007138e+02,-1.461945519729185961e+00,4.719714124826319690e+00,2.716957806687142263e+00
1.049798824627462466e+02,-1.251729022077642028e+00,4.372720153916941577e+00,2.336146028468885749e+00
1.059849499693833792e+02,-1.300513860295787527e+00,3.594056495696239306e+00,1.830294019795466909e+00
1.069858754413218094e+02,-1.460606605612855935e+00,3.182074417798374188e+00,1.523672589306855674e+00
1.080261900187143453e+02,-1.075462449885625338e+00,2.732747101269172418e+00,9.090323150697441346e-01
1.090280881178931907e+02,-3.402799306221789277e-01,2.312516711941259739e+00,7.404007068273411873e-03
1.100157988033342775e+02,4.461430874046636852e-01,1.519739350433576996e+00,-2.114812760250462109e-01
1.110162386930127525e+02,6.214295925162496292e-01,7.276469977386126331e-01,2.052672429611878679e-01
1.120028588676733534e+02,1.976177770433621639e+00,3.576991362268414076e-01,1.959960488789062927e+00
1.129315325591878434e+02,6.138440815785886073e+00,-1.061742130792019623e+00,2.257766588700603538e+00
1.139124707914994019e+02,1.319175607509193426e+01,-4.450194847510866580e+00,-1.711101567830569659e+00
1.150302952633885951e+02,1.843116013235686168e+01,5.500752494712997098e+00,3.294241457382962590e+00
1.160446527986651830e+02,1.030447083193846503e+01,3.588343665213241707e+01,-1.510470194173426650e+00
1.170555730350520065e+02,-4.205497909422849290e+00,5.231701834559710562e+01,-3.492430917933619838e+01
1.180386750569331440e+02,-3.821415948630272652e+01,4.869097964243798060e+01,3.906108768487321470e+00
1.190376470600699434e+02,-2.136008921238656910e+01,2.030440387871156105e+01,2.709766732407194922e+01
1.199799549993041552e+02,-5.385684751574997264e+00,9.210732744719521747e+00,-1.441899844809464781e+01
1.209678339270291758e+02,7.484107411866297355e+00,1.222700674121776565e+01,-3.545652496405850940e+01
1.220243837098952042e+02,8.015784929933122527e+00,2.259354873105444383e+01,-5.828299931641814702e+00
1.230203608686327073e+02,8.304864626134129679e+00,1.960548053889404230e+01,5.752911677831916037e+00
1.240145812943596297e+02,1.423686515661544938e+01,1.748953022002805113e+01,1.152381676133761879e+01
1.249752878139527610e+02,7.747163196750563863e+00,6.968896107852153854e+00,2.129426441527447089e+00
1.259497577422625767e+02,-1.241882186426844115e+00,4.325171392091685441e+00,1.018386398936044435e+00
1.270325498604488672e+02,-7.850030455197387624e+00,7.665429484092261880e+00,-5.103667686318329455e-01
1.278655477301564360e+02,-1.072810217311869785e+01,1.209405122927390153e+01,-2.272683613157036042e+00
1.290205866849969425e+02,-9.134752373971169348e+00,1.237587251441911285e+01,-4.027743048803905879e+00
1.299441971174913704e+02,-6.473493250760460782e+00,9.290043061017868808e+00,-2.748082711579277415e+00
1.309731508710512173e+02,-3.669518516361752525e+00,9.325474849675140732e+00,8.719351767482790005e-02
1.319813337043955812e+02,-7.438108715379342373e-01,1.248066272050591863e+01,1.701568916799806486e+00
1.330533822156967005e+02,2.191951337232080466e+00,1.536830386306569629e+01,1.829199649681045425e+00
1.340144216246199846e+02,2.640656532867470041e+00,1.418153334653878339e+01,1.360443669887942519e+00
1.349524601740308185e+02,6.389980383257916341e-02,1.174300414563209571e+01,7.537109851804576488e-01
1.359687905173596789e+02,-3.289009930786738423e+00,1.087988616478527959e+01,-1.237902604323933287e-01
1.370269414473466441e+02,-5.507647663835314233e+00,1.092969331739796601e+01,-1.118477034676537585e+00
1.380322667111815065e+02,-5.355136366182421170e+00,1.077893578402129293e+01,-1.151028395993896503e+00
1.389906489871020767e+02,-4.367431182822044455e+00,1.005322179802139004e+01,-2.611280924906371759e-01
1.400160643530163043e+02,-3.336529388101676208e+00,9.560997355584069268e+00,8.256246269471670951e-01
1.409720663548757500e+02,-1.675478015113280428e+00,9.534359058732700731e+00,1.544994913353494370e+00
1.420961389690265833e+02,-6.624401523736301867e-01,9.661777221044719255e+00,2.031020074941999987e+00
1.429424891928878765e+02,-8.304372510865485335e-01,9.598678683669863432e+00,1.955198131481210577e+00
1.439275805762597145e+02,-1.939106402223032433e+00,9.093451744618006316e+00,1.858842505479315177e+00
1.451085583549529474e+02,-2.724198790238464785e+00,9.008778374276831258e+00,1.668373736998406853e+00
1.460546104430621313e+02,-3.027875375006807701e+00,9.008184775002325395e+00,1.284019190126798771e+00
1.469889730595743913e+02,-3.554155338128891284e+00,8.483513934771961473e+00,1.610086250974674948e+00
1.479921949486202095e+02,-3.786624397194730651e+00,8.066283328176625744e+00,2.048955070972801273e+00
1.490236722163760987e+02,-3.354794656400109432e+00,8.114468775250733401e+00,2.492799684241412628e+00
1.498924121126676710e+02,-2.867575216880810185e+00,8.689754861815346842e+00,2.434862164193106082e+00
1.510256391870839252e+02,-2.442442728904341998e+00,8.913994794148745626e+00,2.373177597721302323e+00
1.519883131991192613e+02,-2.542915839751268336e+00,8.518967225270177579e+00,2.738574835716794276e+00
1.529533366592052062e+02,-2.906978933349420480e+00,8.260369531074248428e+00,2.526232330996116104e+00
1.540562307228055658e+02,-3.243266896465780924e+00,8.813399493660833528e+00,2.420680195398527967e+00
1.549711130162801282e+02,-3.188983971692907815e+00,9.075804783337186876e+00,2.566553527845345517e+00
1.559472564718962246e+02,-3.183153321022589299e+00,8.937084617910537432e+00,2.507350365020728944e+00
1.569647803903277463e+02,-3.353036413342641353e+00,8.772803049180925683e+00,2.420228157504655364e+00
1.580640869067662493e+02,-3.349935951772532672e+00,8.751681288658700097e+00,2.326977789085534543e+00
1.590257150830194632e+02,-3.405772165876264523e+00,8.793544071693213837e+00,2.643597292543450106e+00
1.600535787890692347e+02,-3.341223882652531785e+00,8.492405045906931349e+00,2.595588728561099234e+00
1.610464005938588627e+02,-3.291237233726527212e+00,8.419397424765410420e+00,2.768314951231929832e+00
1.620363719258035076e+02,-3.511549108205851422e+00,8.486600431380175280e+00,2.894476632497219537e+00
1.629550707566527024e+02,-3.565809885092962705e+00,8.500845106765975601e+00,3.145264276118648450e+00
1.639869699190498409e+02,-3.512612232163666803e+00,8.349768964888269807e+00,3.306009924492398167e+00
1.649884318887333734e+02,-3.592919046164150032e+00,8.565864660581747003e+00,3.350754661988414984e+00
1.659916227413128524e+02,-3.688811266952969792e+00,8.593033317004454830e+00,2.990514395796712410e+00
1.669866883905393422e+02,-3.750086001640723143e+00,8.116053644739732675e+00,3.057002448734009725e+00
1.679563963685507417e+02,-3.772531424070877382e+00,8.134882751737567474e+00,3.591006602869344366e+00
1.688515183958791681e+02,-3.388556539344229623e+00,8.785386598751154352e+00,3.588482865218940887e+00
1.700628363291680216e+02,-3.460117229420665019e+00,8.965564611280113283e+00,3.194961787371806139e+00
1.709689331293015186e+02,-3.925848426187647622e+00,8.374877632953367623e+00,2.823133319714439704e+00
1.720129538619428615e+02,-4.238460436106312734e+00,8.212159702193821076e+00,3.068147037925447851e+00
1.730005444855261487e+02,-4.114779705160073853e+00,8.404682268736994644e+00,3.380876236275542457e+00
1.740153149830010761e+02,-3.856626916618283829e+00,8.823042111052780356e+00,3.367952043867901590e+00
1.750485550221441713e+02,-3.649296859615982935e+00,8.743221792831594286e+00,3.669744931569379975e+00
1.759750849874415906e+02,-3.614514492370465515e+00,8.494389014789089032e+00,3.456301843859570955e+00
1.769019896932997540e+02,-3.941352060408836344e+00,8.453844857918587863e+00,3.182868731641806281e+00
1.779508446217856488e+02,-4.259606586565174879e+00,8.455055542569988702e+00,3.412354620517557446e+00
1.789754215011312510e+02,-4.541923512494083326e+00,8.433379235653394090e+00,3.856747095016774374e+00
1.800684322883543018e+02,-4.470049612377517079e+00,8.532256237395726473e+00,4.097108148772997893e+00
1.808641951439079776e+02,-3.953096677832102834e+00,8.846446581728654834e+00,3.835246559336552785e+00
1.820675049111208068e+02,-4.098276964094734964e+00,8.729691714676732772e+00,3.829855688801996560e+00
1.831028587038556452e+02,-4.445482132054143776e+00,8.123355851307085373e+00,3.965959789006459513e+00
1.840308499475027020e+02,-4.252212642623788064e+00,7.833597331311036527e+00,4.104618078345384724e+00
1.850044798815837055e+02,-3.805756948233702364e+00,8.418906706224696279e+00,4.020631956852320776e+00
1.859578441026809514e+02,-3.317487338511444506e+00,9.048149706074823939e+00,3.626009298013369353e+00
1.870304672449122165e+02,-3.554501734653235268e+00,9.130985005953931477e+00,3.598465416021419561e+00
1.879958933902448450e+02,-4.055466651125717803e+00,8.939654824677637279e+00,3.479386629194782365e+00
1.889256913962424846e+02,-4.153926474612659625e+00,8.840982284229703225e+00,3.610146321468766129e+00
1.900272127490723904e+02,-4.210654957894037764e+00,8.941619697553219837e+00,3.614038484098487825e+00
1.909189119436214241e+02,-4.165671060093629308e+00,9.339000543291634315e+00,3.665528279379985488e+00
1.919576388129676161e+02,-4.070364316113254333e+00,9.640031058269133979e+00,3.785232419782820656e+00
1.930336935218711858e+02,-4.008521081907907124e+00,9.365545087602180629e+00,3.662519648695305108e+00
1.940257178847930390e+02,-4.235250669066244811e+00,9.017369820656119472e+00,3.480275249659485759e+00
1.949940232020447866e+02,-4.313190972115810595e+00,8.817976946731803878e+00,3.375294290922499663e+00
1.959854061780831671e+02,-4.115415308900394642e+00,9.018681698204913388e+00,3.511581634835158727e+00
1.969606419942735442e+02,-4.046397862753103425e+00,8.927463029896467006e+00,3.495237426513360557e+00
1.979902505642904771e+02,-4.175866549135666794e+00,9.076824562829454379e+00,3.571636159177128622e+00
1.990684807303160540e+02,-4.161989617237391137e+00,8.997274211409806099e+00,3.493249847411157294e+00
2.000074263305416480e+02,-4.027541219658445470e+00,8.917399531463940932e+00,3.377223562566644688e+00
2.010799211488563571e+02,-3.872234984199344421e+00,9.022203862510163930e+00,3.153318169152221628e+00
2.020205221605657755e+02,-3.534573159027188272e+00,9.154277110102659876e+00,3.235550952046289286e+00
2.030744199055480976e+02,-3.479814707167966592e+00,9.401151373120749000e+00,3.353082550759292957e+00
2.039380785044434390e+02,-3.711154377703959284e+00,9.413559129939391923e+00,3.521238663120816792e+00
2.050443639464206456e+02,-3.857156727342484714e+00,9.319870144633112474e+00,3.601720906326404847e+00
2.059920442690809068e+02,-3.826899387777631834e+00,9.396677701193132393e+00,3.409845244029066968e+00
2.069802503373428522e+02,-3.600266401957222584e+00,9.590521714663108099e+00,3.481314878757741038e+00
2.080412090457263616e+02,-3.493015491289465313e+00,9.582246816132967027e+00,3.647319200764671088e+00
2.089720738369917683e+02,-3.666628296505219264e+00,9.458053206745701047e+00,3.380570030609663323e+00
2.099408830046477590e+02,-3.605963012667469325e+00,9.011776014092252041e+00,3.003819989529127543e+00
2.110316862222608449e+02,-3.923583714461394756e+00,9.018958354458710858e+00,3.078683580120692209e+00
2.120118391708529089e+02,-3.873334213020581895e+00,9.119528993078381163e+00,3.473576939083482529e+00
2.130258851006543068e+02,-3.869582443835639651e+00,9.053516672393749687e+00,3.639594723069373927e+00
2.140173476662532437e+02,-3.615304137293843034e+00,8.894645254528144918e+00,3.575202408110297547e+00
2.150412623548527620e+02,-3.540688393208967888e+00,8.718479341844982855e+00,3.616088893133442728e+00
2.158810238901163814e+02,-3.405903495447788032e+00,8.705252852750344772e+00,3.826539010189546008e+00
2.169792401945495897e+02,-3.436279279563783984e+00,8.729862132313890299e+00,3.784492634485417728e+00
2.179939156480103293e+02,-3.614482403206554562e+00,9.058869419230768827e+00,3.707418015374297493e+00
2.190033983358488285e+02,-3.562602831797838654e+00,9.183395188933129560e+00,3.560904618708580216e+00
2.199388367113980678e+02,-3.578122880795582272e+00,9.360513097063570598e+00,3.501935975543847057e+00
2.209866377442658347e+02,-3.681760373033414968e+00,9.267527171204640979e+00,3.367901303534659441e+00
2.220505092598232864e+02,-3.715803713527478180e+00,9.212989428886563914e+00,3.521246262296324314e+00
