547,-0.363831,0.288925,-0.037308
1535,-0.579056,1.229111,-0.197006
2685,-0.033447000000000005,0.8393709999999999,0.11480699999999999
1580,-0.20195,0.746811,0.025497
290,-0.42744399999999994,2.167435,-1.262558
2642,-0.09780900000000001,1.333374,0.014008000000000001
350,-0.19802899999999998,-0.501541,0.803009
285,-0.23915100000000003,0.158142,-0.262299
2167,0.100128,1.5562129999999998,0.124329
1577,-0.127457,0.645798,-0.129501
2000,-0.180649,0.6684720000000001,0.053696
772,-1.315475,2.1179959999999998,-0.924637
640,-0.42262299999999997,0.8920899999999999,-0.246689
2907,-0.255249,0.968353,-0.171646
1740,-0.135178,1.032227,-0.227341
410,-0.42099,0.6480560000000001,-0.11554
1672,-0.009201,2.133301,0.21431
260,-0.300964,0.7941590000000001,0.016541
1980,-0.330475,0.29775999999999997,-0.47206099999999995
957,0.076935,1.276199,0.006836
150,-0.032394,0.6920930000000001,-0.097748
537,-0.8544010000000001,1.472015,0.074417
2950,-0.283508,0.8703,0.049423
427,-0.628433,1.186432,-0.188614
2740,-0.056777999999999995,0.7115779999999999,0.017029
2035,-0.770432,1.450546,-0.9242100000000001
2927,-0.134933,0.33073400000000003,-0.133713
1625,-0.258682,0.755508,0.08706699999999999
622,-0.447662,0.674454,-0.17288199999999998
2782,-0.838837,0.408401,0.498474
1760,-0.32568400000000003,0.139771,-0.018448
1650,-0.159912,1.100693,0.250748
1035,-1.5539399999999999,2.240189,-0.803909
3110,-0.456787,0.576309,0.06427000000000001
1065,-0.272415,1.000366,0.032669
1270,-0.220169,1.0856780000000001,-0.135025
330,-0.33013899999999996,1.043991,0.088654
727,0.138763,2.3308720000000003,-0.087082
570,-0.4422,0.417175,-0.03067
1615,-0.43078599999999995,2.583755,0.5776979999999999
2072,-0.593063,1.4378360000000001,0.107651
1645,-0.935349,1.301544,0.345673
1032,-0.328873,0.258621,-0.8086399999999999
920,-0.363937,0.46984899999999996,-0.09375
2027,-0.325745,0.161011,0.0036009999999999996
1565,-0.383194,-0.946838,1.45285
312,-0.213608,0.752853,0.06991599999999999
595,-0.673904,1.175262,0.164429
357,-0.339142,0.9103389999999999,0.006729000000000001
1590,-0.275955,1.300507,0.129883
1387,-0.470963,1.138123,0.365494
580,-0.409683,1.001663,-0.160477
1617,-0.10029600000000001,-0.611084,0.73436
915,-0.823059,1.309113,0.015854
2712,-0.20784,0.27722199999999997,-0.045654
1537,-0.09169,1.1085209999999999,0.08048999999999999
182,-0.391388,0.565018,-0.9452969999999999
3105,0.212036,-0.831253,0.887711
2945,0.491241,2.1146700000000003,-0.065674
2402,-0.588318,1.000793,-1.041183
1040,-1.2408139999999999,1.792053,0.2491
737,-0.139282,0.823166,-0.017426
1502,-0.20858800000000002,0.22456399999999999,-0.378006
1555,-0.255661,0.132751,-0.28685
905,-0.150696,1.340225,0.104752
1807,-0.660828,1.3364719999999999,0.11750799999999999
530,-0.347534,1.053909,-0.323471
1635,-0.061813,1.116425,-0.19856300000000002
600,-0.31605500000000003,0.217606,-0.130951
1345,-0.260681,0.178207,-0.25174
1532,-0.16966199999999998,1.261765,-0.19300799999999999
750,-0.599213,1.322433,0.118225
2265,-0.035172,0.805511,-0.069702
3102,0.266266,0.8553620000000001,0.197998
2982,-0.278717,0.311539,-0.125626
2325,-0.08645599999999999,1.3552549999999999,0.11114500000000001
1787,-0.037247,0.877075,0.13327
282,-0.311676,0.180481,0.008926
200,-0.266495,0.884186,0.13856500000000002
1287,-0.175323,0.17836,-0.111908
887,-0.000183,1.743698,0.134811
2410,-0.131958,-0.649017,0.670517
1470,-0.224731,0.678802,0.06072999999999999
2045,0.125778,1.7486419999999998,-0.092422
1825,-0.068314,0.363342,-0.670609
2485,-0.27319299999999996,0.960709,-0.159439
2407,0.0070799999999999995,0.755096,-0.319656
145,-0.354706,0.8585360000000001,0.095062
2932,-0.23793000000000003,0.312866,-0.275909
2495,-0.13046300000000002,1.000473,0.21232600000000001
2777,-1.314514,1.867111,-1.0216370000000001
2047,-0.253906,1.33847,0.194107
2612,-0.43119799999999997,0.543945,-0.7731779999999999
1700,-0.443222,1.3587040000000001,0.22885100000000003
1227,-0.994461,1.369797,0.493759
2460,0.022247,-1.499069,1.6779330000000001
3137,-0.21609499999999998,1.096588,0.311462
2610,-0.160019,0.22853099999999998,-0.312454
262,-0.209335,0.9678959999999999,-0.2388
222,-0.615173,1.498138,-0.066376
370,-0.108673,1.2066649999999999,-0.154846
